Health Insurance analysis
…
## The following object is masked from 'package:dplyr':
## 
##     collapse

df <- read_xlsx("C:/College/Courses/SDM/Assignments/Health Insurance/Health-Insurance-analysis/HealthInsurance.xlsx", sheet = "Data")

Data Exploration

dft <- df

dft

## # A tibble: 10,089 x 29
##    medexpense healthins   age female blackhisp income illnesses ssiratio
##         <dbl>     <dbl> <dbl>  <dbl>     <dbl>  <dbl>     <dbl>    <dbl>
##  1        595         1    74      1         0  94.5          0    0.150
##  2       1783         1    73      0         0  35.8          3    0.396
##  3        176         0    80      1         0   9.6          1    1    
##  4       2437         1    70      0         0  38.7          5    0.207
##  5        330         0    91      0         0   8.72         3    0.537
##  6        922         1    82      1         0  43.6          2    0.326
##  7       1294         1    81      0         0  44.4          4    0.135
##  8        616         0    90      1         0  12            2    1    
##  9       3708         1    73      0         0  24.7          1    0    
## 10        701         0    79      1         0  13.5          3    1    
## # ... with 10,079 more rows, and 21 more variables: lowincome <dbl>,
## #   firmsize <dbl>, firmlocation <dbl>, educyr <dbl>, private <dbl>,
## #   hisp <dbl>, black <dbl>, married <dbl>, verygood <dbl>, good <dbl>,
## #   fair <dbl>, poor <dbl>, poverty <dbl>, midincome <dbl>, msa <dbl>,
## #   prioritylist <dbl>, logmedexpense <dbl>, agesqrd <dbl>, logincome <dbl>,
## #   vgh <dbl>, fph <dbl>
…
